vivado_project/Fast_Adder/Fast_Adder.sim/sim_1/behav/xsim/fast_adder.vcd
$date
   Mon Jan 27 00:17:15 2025
$end

$version
  2024.2.0
  $dumpfile ("fast_adder.vcd") 
$end

$timescale
  1ps
$end

$scope module fast_adder_4bits_tb $end
$var reg 4 ! sum [3:0] $end
$var reg 1 " carry $end
$scope module uut $end
$var wire 4 # A [3:0] $end
$var wire 4 $ B [3:0] $end
$var wire 1 % Cin $end
$var wire 4 & Sum [3:0] $end
$var wire 4 ' Cout [3:0] $end
$var reg 4 ( p [3:0] $end
$var reg 4 ) g [3:0] $end
$scope module genblk2[0].fa_instant $end
$var wire 1 * Cin $end
$var wire 1 + A $end
$var wire 1 , B $end
$var wire 1 - Sum $end
$upscope $end
$scope module genblk2[1].fa_instant $end
$var wire 1 . Cin $end
$var wire 1 / A $end
$var wire 1 0 B $end
$var wire 1 1 Sum $end
$upscope $end
$scope module genblk2[2].fa_instant $end
$var wire 1 2 Cin $end
$var wire 1 3 A $end
$var wire 1 4 B $end
$var wire 1 5 Sum $end
$upscope $end
$scope module genblk2[3].fa_instant $end
$var wire 1 6 Cin $end
$var wire 1 7 A $end
$var wire 1 8 B $end
$var wire 1 9 Sum $end
$upscope $end
$upscope $end
$scope begin Block16_1 $end
$var integer 32 : i [31:0] $end
$var integer 32 ; j [31:0] $end
$upscope $end
$upscope $end
$enddefinitions $end

#0
$dumpvars
b0 !
0"
b0 #
b0 $
0%
b0 &
b0 '
b0 (
b0 )
0*
0+
0,
0-
0.
0/
00
01
02
03
04
05
06
07
08
09
b0 :
b0 ;
$end

#10000
b1 !
b1 $
b1 &
b1 (
1,
1-
00
04
08
b1 ;

#20000
b10 !
b10 $
b10 &
b10 (
0,
0-
10
11
04
08
b10 ;

#30000
b11 !
b11 $
b11 &
b11 (
1,
1-
10
04
08
b11 ;

#40000
b100 !
b100 $
b100 &
b100 (
0,
0-
00
01
14
15
08
b100 ;

#50000
b101 !
b101 $
b101 &
b101 (
1,
1-
00
14
08
b101 ;

#60000
b110 !
b110 $
b110 &
b110 (
0,
0-
10
11
14
08
b110 ;

#70000
b111 !
b111 $
b111 &
b111 (
1,
1-
10
14
08
b111 ;

#80000
b1000 !
b1000 $
b1000 &
b1000 (
0,
0-
00
01
04
05
18
19
b1000 ;

#90000
b1001 !
b1001 $
b1001 &
b1001 (
1,
1-
00
04
18
b1001 ;

#100000
b1010 !
b1010 $
b1010 &
b1010 (
0,
0-
10
11
04
18
b1010 ;

#110000
b1011 !
b1011 $
b1011 &
b1011 (
1,
1-
10
04
18
b1011 ;

#120000
b1100 !
b1100 $
b1100 &
b1100 (
0,
0-
00
01
14
15
18
b1100 ;

#130000
b1101 !
b1101 $
b1101 &
b1101 (
1,
1-
00
14
18
b1101 ;

#140000
b1110 !
b1110 $
b1110 &
b1110 (
0,
0-
10
11
14
18
b1110 ;

#150000
b1111 !
b1111 $
b1111 &
b1111 (
1,
1-
10
14
18
b1111 ;

#160000
b1 !
b1 #
b0 $
b1 &
b1 (
1+
0,
0/
00
01
03
04
05
07
08
09
b1 :
b0 ;

#170000
b10 !
b1 $
b10 &
b1 )
1,
0-
1.
00
11
04
08
b1 ;

#180000
b11 !
b10 $
b11 &
b11 (
b0 )
0,
1-
0.
10
11
02
04
05
08
b10 ;

#190000
b100 !
b11 $
b100 &
b1 )
1,
0-
1.
10
01
12
04
15
08
b11 ;

#200000
b101 !
b100 $
b101 &
b101 (
b0 )
0,
1-
0.
00
01
02
14
15
08
b100 ;

#210000
b110 !
b101 $
b110 &
b1 )
1,
0-
1.
00
11
14
08
b101 ;

#220000
b111 !
b110 $
b111 &
b111 (
b0 )
0,
1-
0.
10
11
02
14
15
06
08
09
b110 ;

#230000
b1000 !
b111 $
b1000 &
b1 )
1,
0-
1.
10
01
12
14
05
16
08
19
b111 ;

#240000
b1001 !
b1000 $
b1001 &
b1001 (
b0 )
0,
1-
0.
00
01
02
04
05
06
18
19
b1000 ;

#250000
b1010 !
b1001 $
b1010 &
b1 )
1,
0-
1.
00
11
04
18
b1001 ;

#260000
b1011 !
b1010 $
b1011 &
b1011 (
b0 )
0,
1-
0.
10
11
02
04
05
18
b1010 ;

#270000
b1100 !
b1011 $
b1100 &
b1 )
1,
0-
1.
10
01
12
04
15
18
b1011 ;

#280000
b1101 !
b1100 $
b1101 &
b1101 (
b0 )
0,
1-
0.
00
01
02
14
15
18
b1100 ;

#290000
b1110 !
b1101 $
b1110 &
b1 )
1,
0-
1.
00
11
14
18
b1101 ;

#300000
b1111 !
0"
b1110 $
b1111 &
b0 '
b1111 (
b0 )
0,
1-
0.
10
11
02
14
15
06
18
19
b1110 ;

#310000
b0 !
1"
b1111 $
b0 &
b1 '
b1 )
1,
0-
1.
10
01
12
14
05
16
18
09
b1111 ;

#320000
b10 !
0"
b10 #
b0 $
b10 &
b0 '
b10 (
b0 )
0+
0,
0.
1/
00
11
02
03
04
05
06
07
08
09
b10 :
b0 ;

#330000
b11 !
b1 $
b11 &
b11 (
1,
1-
00
04
08
b1 ;

#340000
b100 !
b10 $
b100 &
b10 (
b10 )
0,
0-
10
01
12
04
15
08
b10 ;

#350000
b101 !
b11 $
b101 &
b11 (
1,
1-
10
04
08
b11 ;

#360000
b110 !
b100 $
b110 &
b110 (
b0 )
0,
0-
00
11
02
14
15
06
08
09
b100 ;

#370000
b111 !
b101 $
b111 &
b111 (
1,
1-
00
14
08
b101 ;

#380000
b1000 !
b110 $
b1000 &
b110 (
b10 )
0,
0-
10
01
12
14
05
16
08
19
b110 ;

#390000
b1001 !
b111 $
b1001 &
b111 (
1,
1-
10
14
08
b111 ;

#400000
b1010 !
b1000 $
b1010 &
b1010 (
b0 )
0,
0-
00
11
02
04
05
06
18
19
b1000 ;

#410000
b1011 !
b1001 $
b1011 &
b1011 (
1,
1-
00
04
18
b1001 ;

#420000
b1100 !
b1010 $
b1100 &
b1010 (
b10 )
0,
0-
10
01
12
04
15
18
b1010 ;

#430000
b1101 !
b1011 $
b1101 &
b1011 (
1,
1-
10
04
18
b1011 ;

#440000
b1110 !
0"
b1100 $
b1110 &
b0 '
b1110 (
b0 )
0,
0-
00
11
02
14
15
06
18
19
b1100 ;

#450000
b1111 !
b1101 $
b1111 &
b1111 (
1,
1-
00
14
18
b1101 ;

#460000
b0 !
1"
b1110 $
b0 &
b1 '
b1110 (
b10 )
0,
0-
10
01
12
14
05
16
18
09
b1110 ;

#470000
b1 !
b1111 $
b1 &
b1111 (
1,
1-
10
14
18
b1111 ;

#480000
b11 !
0"
b11 #
b0 $
b11 &
b0 '
b11 (
b0 )
1+
0,
1/
00
11
02
03
04
05
06
07
08
09
b11 :
b0 ;

#490000
b100 !
b1 $
b100 &
b1 )
1,
0-
1.
00
01
12
04
15
08
b1 ;

#500000
b101 !
b10 $
b101 &
b10 )
0,
1-
0.
10
01
04
08
b10 ;

#510000
b110 !
b11 $
b110 &
b11 )
1,
0-
1.
10
11
04
08
b11 ;

#520000
b111 !
b100 $
b111 &
b111 (
b0 )
0,
1-
0.
00
11
02
14
15
06
08
09
b100 ;

#530000
b1000 !
b101 $
b1000 &
b1 )
1,
0-
1.
00
01
12
14
05
16
08
19
b101 ;

#540000
b1001 !
b110 $
b1001 &
b10 )
0,
1-
0.
10
01
14
08
b110 ;

#550000
b1010 !
b111 $
b1010 &
b11 )
1,
0-
1.
10
11
14
08
b111 ;

#560000
b1011 !
b1000 $
b1011 &
b1011 (
b0 )
0,
1-
0.
00
11
02
04
05
06
18
19
b1000 ;

#570000
b1100 !
b1001 $
b1100 &
b1 )
1,
0-
1.
00
01
12
04
15
18
b1001 ;

#580000
b1101 !
b1010 $
b1101 &
b10 )
0,
1-
0.
10
01
04
18
b1010 ;

#590000
b1110 !
b1011 $
b1110 &
b11 )
1,
0-
1.
10
11
04
18
b1011 ;

#600000
b1111 !
0"
b1100 $
b1111 &
b0 '
b1111 (
b0 )
0,
1-
0.
00
11
02
14
15
06
18
19
b1100 ;

#610000
b0 !
1"
b1101 $
b0 &
b1 '
b1 )
1,
0-
1.
00
01
12
14
05
16
18
09
b1101 ;

#620000
b1 !
b1110 $
b1 &
b10 )
0,
1-
0.
10
01
14
18
b1110 ;

#630000
b10 !
b1111 $
b10 &
b11 )
1,
0-
1.
10
11
14
18
b1111 ;

#640000
b100 !
0"
b100 #
b0 $
b100 &
b0 '
b100 (
b0 )
0+
0,
0.
0/
00
01
02
13
04
15
06
07
08
09
b100 :
b0 ;

#650000
b101 !
b1 $
b101 &
b101 (
1,
1-
00
04
08
b1 ;

#660000
b110 !
b10 $
b110 &
b110 (
0,
0-
10
11
04
08
b10 ;

#670000
b111 !
b11 $
b111 &
b111 (
1,
1-
10
04
08
b11 ;

#680000
b1000 !
b100 $
b1000 &
b100 (
b100 )
0,
0-
00
01
14
05
16
08
19
b100 ;

#690000
b1001 !
b101 $
b1001 &
b101 (
1,
1-
00
14
08
b101 ;

#700000
b1010 !
b110 $
b1010 &
b110 (
0,
0-
10
11
14
08
b110 ;

#710000
b1011 !
b111 $
b1011 &
b111 (
1,
1-
10
14
08
b111 ;

#720000
b1100 !
0"
b1000 $
b1100 &
b0 '
b1100 (
b0 )
0,
0-
00
01
04
15
06
18
19
b1000 ;

#730000
b1101 !
b1001 $
b1101 &
b1101 (
1,
1-
00
04
18
b1001 ;

#740000
b1110 !
b1010 $
b1110 &
b1110 (
0,
0-
10
11
04
18
b1010 ;

#750000
b1111 !
b1011 $
b1111 &
b1111 (
1,
1-
10
04
18
b1011 ;

#760000
b0 !
1"
b1100 $
b0 &
b1 '
b1100 (
b100 )
0,
0-
00
01
14
05
16
18
09
b1100 ;

#770000
b1 !
b1101 $
b1 &
b1101 (
1,
1-
00
14
18
b1101 ;

#780000
b10 !
b1110 $
b10 &
b1110 (
0,
0-
10
11
14
18
b1110 ;

#790000
b11 !
b1111 $
b11 &
b1111 (
1,
1-
10
14
18
b1111 ;

#800000
b101 !
0"
b101 #
b0 $
b101 &
b0 '
b101 (
b0 )
1+
0,
0/
00
01
13
04
15
06
07
08
09
b101 :
b0 ;

#810000
b110 !
b1 $
b110 &
b1 )
1,
0-
1.
00
11
04
08
b1 ;

#820000
b111 !
b10 $
b111 &
b111 (
b0 )
0,
1-
0.
10
11
02
04
15
06
08
09
b10 ;

#830000
b1000 !
b11 $
b1000 &
b1 )
1,
0-
1.
10
01
12
04
05
16
08
19
b11 ;

#840000
b1001 !
b100 $
b1001 &
b101 (
b100 )
0,
1-
0.
00
01
02
14
05
08
b100 ;

#850000
b1010 !
b101 $
b1010 &
b101 )
1,
0-
1.
00
11
14
08
b101 ;

#860000
b1011 !
b110 $
b1011 &
b111 (
b100 )
0,
1-
0.
10
11
02
14
05
08
b110 ;

#870000
b1100 !
b111 $
b1100 &
b101 )
1,
0-
1.
10
01
12
14
15
08
b111 ;

#880000
b1101 !
0"
b1000 $
b1101 &
b0 '
b1101 (
b0 )
0,
1-
0.
00
01
02
04
15
06
18
19
b1000 ;

#890000
b1110 !
b1001 $
b1110 &
b1 )
1,
0-
1.
00
11
04
18
b1001 ;

#900000
b1111 !
0"
b1010 $
b1111 &
b0 '
b1111 (
b0 )
0,
1-
0.
10
11
02
04
15
06
18
19
b1010 ;

#910000
b0 !
1"
b1011 $
b0 &
b1 '
b1 )
1,
0-
1.
10
01
12
04
05
16
18
09
b1011 ;

#920000
b1 !
b1100 $
b1 &
b1101 (
b100 )
0,
1-
0.
00
01
02
14
05
18
b1100 ;

#930000
b10 !
b1101 $
b10 &
b101 )
1,
0-
1.
00
11
14
18
b1101 ;

#940000
b11 !
b1110 $
b11 &
b1111 (
b100 )
0,
1-
0.
10
11
02
14
05
18
b1110 ;

#950000
b100 !
b1111 $
b100 &
b101 )
1,
0-
1.
10
01
12
14
15
18
b1111 ;

#960000
b110 !
0"
b110 #
b0 $
b110 &
b0 '
b110 (
b0 )
0+
0,
0.
1/
00
11
02
13
04
15
06
07
08
09
b110 :
b0 ;

#970000
b111 !
b1 $
b111 &
b111 (
1,
1-
00
04
08
b1 ;

#980000
b1000 !
b10 $
b1000 &
b110 (
b10 )
0,
0-
10
01
12
04
05
16
08
19
b10 ;

#990000
b1001 !
b11 $
b1001 &
b111 (
1,
1-
10
04
08
b11 ;

#1000000
b1010 !
b100 $
b1010 &
b110 (
b100 )
0,
0-
00
11
02
14
05
08
b100 ;
